…
``` r
library(dplyr)
library(sf)

nc_s2 <- read_sf(system.file("shape/nc.shp", package = "sf")) %>% 
  mutate(geometry = as_s2_geography(wk::wkb(st_as_binary(geometry)))) %>% 
  as_tibble() %>% 
  select(NAME, geometry)

nc_s2
#> # A tibble: 100 x 2
#>    NAME        geometry                                                         
#>    <chr>       <s2_geography>                                                   
#>  1 Ashe        <POLYGON ((-81.4529 36.2396, -81.431 36.2607, -81.4123 36.2673, …
#>  2 Alleghany   <POLYGON ((-81.1767 36.4154, -81.1534 36.4247, -81.1384 36.4176,…
#>  3 Surry       <POLYGON ((-80.453 36.2571, -80.4353 36.551, -80.6111 36.5573, -…
#>  4 Currituck   <MULTIPOLYGON (((-75.9419 36.2943, -75.9575 36.2595, -75.9138 36…
#>  5 Northampton <POLYGON ((-77.142 36.4171, -77.1393 36.4565, -77.1273 36.4707, …
#>  6 Hertford    <POLYGON ((-76.7075 36.2661, -76.7413 36.3152, -76.9241 36.3924,…
#>  7 Camden      <POLYGON ((-76.0173 36.3377, -76.0329 36.336, -76.044 36.3536, -…
#>  8 Gates       <POLYGON ((-76.4604 36.3739, -76.5025 36.4523, -76.4983 36.5039,…
#>  9 Warren      <POLYGON ((-78.1347 36.2366, -78.1096 36.2135, -78.0583 36.2113,…
#> 10 Stokes      <POLYGON ((-80.0241 36.545, -80.0481 36.5471, -80.4353 36.551, -…
#> # … with 90 more rows
```
…
